{"STUDENTS":[
  {"nom":"Doe","prenom":"Anna", "adresse":"rue des petit pois","datedenaissance":"26/11/08", "dateinscription":"12/12/19"},
  {"nom":"Moldus","prenom":"Rik", "adresse":"rue des carrottes","datedenaissance":"06/04/09", "dateinscription":"12/12/19"},
  {"nom":"Polo","prenom":"Marco", "adresse":"rue des poireaux","datedenaissance":"16/08/08", "dateinscription":"12/12/19"},
  {"nom":"","prenom":"", "adresse":"","datedenaissance":"", "dateinscription":""},
]}

{"cours":[
   {"nom":"potions","duree":"2heures", "professeur":"Potiron","prenom":"Paul", "mail":"potiron@gmail.com"},
   {"nom":"défences contre les forces du mal","duree":"2heures", "professeur":"Vilain","prenom":"Vlad", "mail":"vilain@gmail.com"},
   {"nom":"métamorphose","duree":"2heures", "professeur":"McGonagall","prenom":"Minerva", "mail":"minerva@gmail.com"},
   {"nom":"botanique","duree":"2heures", "professeur":"Chourave","prenom":"Pomona", "mail":"pomona@gmail.com"},
   {"nom":"","duree":"", "professeur":"","prenom":"", "mail":""},
]}

{"PROGRAMS":[
	{"nom":"magie-blanche","niveau":""},
	{"nom":"magie-noir","niveau":""},
]}